Lab 01 - Exploring data on COVID-19 in the U.S. – POLS 1600
…
8.3.2.2 Uncomment and interpret the output of the code below

covid_us %>%
  filter(year > 2020)%>%
  ungroup() %>%
  group_by(year,month)%>%
  summarise(
    mn_per_vax = mean(percent_vaccinated, na.rm=T),
    cor = cor(new_cases_pc, percent_vaccinated, use = "complete.obs")
  )

`summarise()` has grouped output by 'year'. You can override using the
`.groups` argument.

# A tibble: 24 × 4
# Groups:   year [2]
    year month mn_per_vax     cor
   <dbl> <dbl>      <dbl>   <dbl>
 1  2021     1      0.988 -0.304 
 2  2021     2      6.01  -0.306 
 3  2021     3     14.8    0.0107
 4  2021     4     28.3    0.0503
 5  2021     5     40.9   -0.102 
 6  2021     6     47.4   -0.206 
 7  2021     7     50.3   -0.290 
 8  2021     8     52.4   -0.334 
 9  2021     9     55.4   -0.288 
10  2021    10     57.8   -0.146 
# ℹ 14 more rows
…
