Lab 02 - Visualizing data on COVID-19 in the U.S. – POLS 1600
…
Here’s an example for a subset of the data from April 1, 2020 to April 7, 2020

We see that the lag() function simply moves the observation of a variable “up” one row so that we can take the difference between the total number of cases in a state on one date and the total number of cases on the date before, to calculate the number of new cases

covid_us %>%
  filter(date >= "2020-04-01" & date < "2020-04-07")%>%
  group_by(state) %>%
  select(state, date, confirmed) %>%
  mutate(
    confirmed_lag1 = lag(confirmed),
    new_cases = confirmed - lag(confirmed)
  )

# A tibble: 306 × 5
# Groups:   state [51]
   state      date       confirmed confirmed_lag1 new_cases
   <chr>      <date>         <int>          <int>     <int>
 1 Minnesota  2020-04-01       689             NA        NA
 2 Minnesota  2020-04-02       742            689        53
 3 Minnesota  2020-04-03       789            742        47
 4 Minnesota  2020-04-04       865            789        76
 5 Minnesota  2020-04-05       935            865        70
 6 Minnesota  2020-04-06       986            935        51
 7 California 2020-04-01      9857             NA        NA
 8 California 2020-04-02     11190           9857      1333
 9 California 2020-04-03     12569          11190      1379
10 California 2020-04-04     13796          12569      1227
# ℹ 296 more rows

If we hadn’t grouped by state, then when we lagged the confirmed variable, R thinks the number of confirmed cases in California before April 1, 2020, is 986 which is actually the number of cases in Minnesota on April 7, 2020

# No group_by would create errors where the last observation from
# one state becomes the first lagged observation for the next state
covid_us %>%
  filter(date >= "2020-04-01" & date < "2020-04-07") %>%
  ungroup() %>%
  select(state, date, confirmed) %>%
  mutate(
    confirmed_lag1 = lag(confirmed),
    new_cases = confirmed - lag(confirmed)
  )

# A tibble: 306 × 5
   state      date       confirmed confirmed_lag1 new_cases
   <chr>      <date>         <int>          <int>     <int>
 1 Minnesota  2020-04-01       689             NA        NA
 2 Minnesota  2020-04-02       742            689        53
 3 Minnesota  2020-04-03       789            742        47
 4 Minnesota  2020-04-04       865            789        76
 5 Minnesota  2020-04-05       935            865        70
 6 Minnesota  2020-04-06       986            935        51
 7 California 2020-04-01      9857            986      8871
 8 California 2020-04-02     11190           9857      1333
 9 California 2020-04-03     12569          11190      1379
10 California 2020-04-04     13796          12569      1227
# ℹ 296 more rows
…
