POLS 1600
…
Calculate the mean (average) number of new_cases of Covid-19 when each type of face_mask policy was in effect for each year_month in our dataset

Note

The group_by() command can group on multiple variables

covid_us %>%
  group_by(face_masks, year_month) %>%
  summarize(
    new_cases_pc = mean(new_cases_pc, na.rm=T)
  ) -> cases_by_month_and_policy

cases_by_month_and_policy

# A tibble: 102 × 3
# Groups:   face_masks [5]
   face_masks year_month new_cases_pc
   <fct>      <chr>             <dbl>
 1 No policy  2020-01        0.000463
 2 No policy  2020-02        0.00188 
 3 No policy  2020-03        1.70    
 4 No policy  2020-04        6.50    
 5 No policy  2022-04       19.8     
 6 No policy  2022-05       20.4     
 7 No policy  2022-06       37.6     
 8 No policy  2022-07       36.2     
 9 No policy  2022-08       35.7     
10 No policy  2022-09       19.0     
# ℹ 92 more rows
…
